{
	"format_version": "1.20.10",
	"minecraft:recipe_shapeless": {
		"description": {
			"identifier": "minecraft:book"
		},
		"tags": ["crafting_table"],
		"ingredients": [
			{
				"item": "minecraft:paper",
				"data": 0
			},
			{
				"item": "minecraft:paper",
				"data": 0
			},
			{
				"item": "minecraft:paper",
				"data": 0
			},
			{
				"item": "minecraft:leather",
				"data": 0
			},
			{
				"item": "minecraft:leather",
				"data": 0
			}
		],
		"unlock": [
			{
				"item": "minecraft:paper",
				"data": 0
			}
		],
		"result": {
			"item": "minecraft:book",
			"count": 1
		}
	}
}
