function laconicraft:villager/modify_profession_trades {profession: "butcher"}
function laconicraft:villager/modify_profession_trades {profession: "farmer"}
function laconicraft:villager/modify_profession_trades {profession: "fisherman"}
