{
	"pools": [
		{
			"rolls": 1,
			"entries": [
				{
					"type": "item",
					"name": "minecraft:stone_axe",
					"weight": 1
				},
				{
					"type": "item",
					"name": "minecraft:wooden_axe",
					"weight": 3
				}
			]
		},
		{
			"rolls": 1,
			"entries": [
				{
					"type": "item",
					"name": "minecraft:stone_pickaxe",
					"weight": 1
				},
				{
					"type": "item",
					"name": "minecraft:wooden_pickaxe",
					"weight": 3
				}
			]
		},
		{
			"rolls": 1,
			"entries": [
				{
					"type": "item",
					"name": "minecraft:apple",
					"weight": 1,
					"functions": [
						{
							"function": "minecraft:set_count",
							"count": {
								"min": 1,
								"max": 2
							}
						}
					]
				}
			]
		},
		{
			"rolls": 1,
			"entries": [
				{
					"type": "item",
					"name": "minecraft:bread",
					"weight": 1,
					"functions": [
						{
							"function": "minecraft:set_count",
							"count": {
								"min": 1,
								"max": 2
							}
						}
					]
				}
			]
		},
		{
			"rolls": 1,
			"entries": [
				{
					"type": "item",
					"name": "minecraft:cod",
					"weight": 1,
					"functions": [
						{
							"function": "minecraft:set_count",
							"count": {
								"min": 1,
								"max": 2
							}
						}
					]
				}
			]
		},
		{
			"rolls": 1,
			"entries": [
				{
					"type": "item",
					"name": "minecraft:stick",
					"weight": 1,
					"functions": [
						{
							"function": "minecraft:set_count",
							"count": {
								"min": 1,
								"max": 12
							}
						}
					]
				}
			]
		},
		{
			"rolls": 1,
			"entries": [
				{
					"type": "item",
					"name": "minecraft:planks",
					"weight": 1,
					"functions": [
						{
							"function": "minecraft:set_count",
							"count": {
								"min": 1,
								"max": 12
							}
						}
					]
				}
			]
		},
		{
			"rolls": 1,
			"entries": [
				{
					"type": "item",
					"name": "minecraft:log2",
					"weight": 1,
					"functions": [
						{
							"function": "minecraft:set_count",
							"count": {
								"min": 1,
								"max": 3
							}
						}
					]
				},
				{
					"type": "item",
					"name": "minecraft:log2",
					"weight": 1,
					"functions": [
						{
							"function": "minecraft:set_data",
							"data": 1
						},
						{
							"function": "minecraft:set_count",
							"count": {
								"min": 1,
								"max": 3
							}
						}
					]
				},
				{
					"type": "item",
					"name": "minecraft:mangrove_log",
					"weight": 1,
					"functions": [
						{
							"function": "minecraft:set_count",
							"count": {
								"min": 1,
								"max": 3
							}
						}
					]
				}
			]
		},
		{
			"rolls": 1,
			"entries": [
				{
					"type": "item",
					"name": "minecraft:log",
					"weight": 1,
					"functions": [
						{
							"function": "minecraft:set_count",
							"count": {
								"min": 1,
								"max": 3
							}
						}
					]
				},
				{
					"type": "item",
					"name": "minecraft:log",
					"weight": 1,
					"functions": [
						{
							"function": "minecraft:set_data",
							"data": 1
						},
						{
							"function": "minecraft:set_count",
							"count": {
								"min": 1,
								"max": 3
							}
						}
					]
				},
				{
					"type": "item",
					"name": "minecraft:log",
					"weight": 1,
					"functions": [
						{
							"function": "minecraft:set_data",
							"data": 2
						},
						{
							"function": "minecraft:set_count",
							"count": {
								"min": 1,
								"max": 3
							}
						}
					]
				},
				{
					"type": "item",
					"name": "minecraft:log",
					"weight": 1,
					"functions": [
						{
							"function": "minecraft:set_data",
							"data": 3
						},
						{
							"function": "minecraft:set_count",
							"count": {
								"min": 1,
								"max": 3
							}
						}
					]
				}
			]
		},
		{
			"rolls": 1,
			"entries": [
				{
					"type": "item",
					"name": "minecraft:carrot",
					"weight": 3,
					"functions": [
						{
							"function": "minecraft:set_count",
							"count": {
								"min": 1,
								"max": 2
							}
						}
					]
				}
			]
		},
		{
			"rolls": 1,
			"entries": [
				{
					"type": "item",
					"name": "minecraft:sapling",
					"weight": 2,
					"functions": [
						{
							"function": "minecraft:set_count",
							"count": {
								"min": 4,
								"max": 4
							}
						}
					]
				},
				{
					"type": "item",
					"name": "minecraft:sapling",
					"weight": 2,
					"functions": [
						{
							"function": "minecraft:set_data",
							"data": 1
						},
						{
							"function": "minecraft:set_count",
							"count": {
								"min": 4,
								"max": 4
							}
						}
					]
				},
				{
					"type": "item",
					"name": "minecraft:sapling",
					"weight": 2,
					"functions": [
						{
							"function": "minecraft:set_data",
							"data": 2
						},
						{
							"function": "minecraft:set_count",
							"count": {
								"min": 4,
								"max": 4
							}
						}
					]
				},
				{
					"type": "item",
					"name": "minecraft:sapling",
					"weight": 4,
					"functions": [
						{
							"function": "minecraft:set_data",
							"data": 3
						},
						{
							"function": "minecraft:set_count",
							"count": {
								"min": 4,
								"max": 4
							}
						}
					]
				},
				{
					"type": "item",
					"name": "minecraft:sapling",
					"weight": 2,
					"functions": [
						{
							"function": "minecraft:set_data",
							"data": 4
						},
						{
							"function": "minecraft:set_count",
							"count": {
								"min": 4,
								"max": 4
							}
						}
					]
				},
				{
					"type": "item",
					"name": "minecraft:sapling",
					"weight": 2,
					"functions": [
						{
							"function": "minecraft:set_data",
							"data": 5
						},
						{
							"function": "minecraft:set_count",
							"count": {
								"min": 4,
								"max": 4
							}
						}
					]
				}
			]
		},
		{
			"rolls": 1,
			"entries": [
				{
					"type": "item",
					"name": "minecraft:melon_seeds",
					"weight": 3,
					"functions": [
						{
							"function": "minecraft:set_count",
							"count": {
								"min": 1,
								"max": 2
							}
						}
					]
				},
				{
					"type": "item",
					"name": "minecraft:pumpkin_seeds",
					"weight": 3,
					"functions": [
						{
							"function": "minecraft:set_count",
							"count": {
								"min": 1,
								"max": 2
							}
						}
					]
				}
			]
		},
		{
			"rolls": 1,
			"entries": [
				{
					"type": "item",
					"name": "minecraft:cactus",
					"weight": 3,
					"functions": [
						{
							"function": "minecraft:set_count",
							"count": {
								"min": 1,
								"max": 2
							}
						}
					]
				},
				{
					"type": "item",
					"name": "minecraft:dye",
					"weight": 2,
					"functions": [
						{
							"function": "set_data",
							"data": 3
						},
						{
							"function": "minecraft:set_count",
							"count": {
								"min": 1,
								"max": 2
							}
						}
					]
				}
			]
		},
		{
			"rolls": 1,
			"entries": [
				{
					"type": "item",
					"name": "minecraft:brown_mushroom",
					"weight": 2,
					"functions": [
						{
							"function": "minecraft:set_count",
							"count": {
								"min": 1,
								"max": 2
							}
						}
					]
				}
			]
		}
	]
}
