{
	"parent": "minecraft:recipes/root",
	"rewards": {
		"recipes": ["laconicraft:cooked_porkchop_from_other_meat"]
	},
	"criteria": {
		"has_other_meat": {
			"trigger": "minecraft:inventory_changed",
			"conditions": {
				"items": [
					{
						"tag": "laconicraft:convertible_to_cooked_porkchop"
					}
				]
			}
		},
		"has_the_recipe": {
			"trigger": "minecraft:recipe_unlocked",
			"conditions": {
				"recipe": "laconicraft:cooked_porkchop_from_other_meat"
			}
		}
	},
	"requirements": [["has_other_meat", "has_the_recipe"]]
}
