{
	"format_version": "1.20.10",
	"minecraft:recipe_shapeless": {
		"description": {
			"identifier": "laconicraft:porkchop_from_beef"
		},
		"tags": ["crafting_table"],
		"ingredients": [
			{
				"item": "minecraft:beef"
			}
		],
		"unlock": [
			{
				"item": "minecraft:beef",
				"data": 0
			}
		],
		"result": {
			"item": "minecraft:porkchop"
		}
	}
}
