fill ~10 ~10 ~10 ~-10 ~-10 ~-10 minecraft:carrots ["growth"=0] replace minecraft:beetroot ["growth"=0]
fill ~10 ~10 ~10 ~-10 ~-10 ~-10 minecraft:carrots ["growth"=1] replace minecraft:beetroot ["growth"=1]
fill ~10 ~10 ~10 ~-10 ~-10 ~-10 minecraft:carrots ["growth"=2] replace minecraft:beetroot ["growth"=2]
fill ~10 ~10 ~10 ~-10 ~-10 ~-10 minecraft:carrots ["growth"=3] replace minecraft:beetroot ["growth"=3]
fill ~10 ~10 ~10 ~-10 ~-10 ~-10 minecraft:carrots ["growth"=4] replace minecraft:beetroot ["growth"=4]
fill ~10 ~10 ~10 ~-10 ~-10 ~-10 minecraft:carrots ["growth"=5] replace minecraft:beetroot ["growth"=5]
fill ~10 ~10 ~10 ~-10 ~-10 ~-10 minecraft:carrots ["growth"=6] replace minecraft:beetroot ["growth"=6]
fill ~10 ~10 ~10 ~-10 ~-10 ~-10 minecraft:carrots ["growth"=7] replace minecraft:beetroot ["growth"=7]

fill ~10 ~10 ~10 ~-10 ~-10 ~-10 minecraft:carrots ["growth"=0] replace minecraft:potatoes ["growth"=0]
fill ~10 ~10 ~10 ~-10 ~-10 ~-10 minecraft:carrots ["growth"=1] replace minecraft:potatoes ["growth"=1]
fill ~10 ~10 ~10 ~-10 ~-10 ~-10 minecraft:carrots ["growth"=2] replace minecraft:potatoes ["growth"=2]
fill ~10 ~10 ~10 ~-10 ~-10 ~-10 minecraft:carrots ["growth"=3] replace minecraft:potatoes ["growth"=3]
fill ~10 ~10 ~10 ~-10 ~-10 ~-10 minecraft:carrots ["growth"=4] replace minecraft:potatoes ["growth"=4]
fill ~10 ~10 ~10 ~-10 ~-10 ~-10 minecraft:carrots ["growth"=5] replace minecraft:potatoes ["growth"=5]
fill ~10 ~10 ~10 ~-10 ~-10 ~-10 minecraft:carrots ["growth"=6] replace minecraft:potatoes ["growth"=6]
fill ~10 ~10 ~10 ~-10 ~-10 ~-10 minecraft:carrots ["growth"=7] replace minecraft:potatoes ["growth"=7]
