{
	"type": "minecraft:entity",
	"pools": [
		{
			"bonus_rolls": 0.0,
			"entries": [
				{
					"type": "minecraft:item",
					"functions": [
						{
							"add": false,
							"count": {
								"type": "minecraft:uniform",
								"max": 2.0,
								"min": 0.0
							},
							"function": "minecraft:set_count"
						},
						{
							"count": {
								"type": "minecraft:uniform",
								"max": 1.0,
								"min": 0.0
							},
							"enchantment": "minecraft:looting",
							"function": "minecraft:enchanted_count_increase"
						}
					],
					"name": "minecraft:rotten_flesh"
				}
			],
			"rolls": 1.0
		},
		{
			"bonus_rolls": 0.0,
			"conditions": [
				{
					"condition": "minecraft:killed_by_player"
				},
				{
					"chance": {
						"type": "minecraft:linear",
						"base": 0.035,
						"per_level_above_first": 0.01
					},
					"condition": "minecraft:random_chance_with_enchanted_bonus",
					"enchantment": "minecraft:looting"
				}
			],
			"entries": [
				{
					"type": "minecraft:item",
					"name": "minecraft:iron_ingot"
				},
				{
					"type": "minecraft:item",
					"name": "minecraft:carrot"
				}
			],
			"rolls": 1.0
		}
	],
	"random_sequence": "minecraft:entities/zombie_villager"
}
