{
	"type": "minecraft:entity",
	"pools": [
		{
			"bonus_rolls": 0.0,
			"entries": [
				{
					"type": "minecraft:item",
					"functions": [
						{
							"add": false,
							"count": {
								"type": "minecraft:uniform",
								"max": 1.0,
								"min": 1.0
							},
							"function": "minecraft:set_count"
						},
						{
							"count": {
								"type": "minecraft:uniform",
								"max": 1.0,
								"min": 0.0
							},
							"enchantment": "minecraft:looting",
							"function": "minecraft:enchanted_count_increase"
						}
					],
					"name": "minecraft:leather"
				}
			],
			"rolls": 1.0
		},
		{
			"bonus_rolls": 0.0,
			"conditions": [
				{
					"condition": "minecraft:killed_by_player"
				},
				{
					"condition": "minecraft:random_chance_with_enchanted_bonus",
					"enchanted_chance": {
						"type": "minecraft:linear",
						"base": 0.13,
						"per_level_above_first": 0.03
					},
					"enchantment": "minecraft:looting",
					"unenchanted_chance": 0.1
				}
			],
			"entries": [
				{
					"type": "minecraft:item",
					"name": "minecraft:rabbit_foot"
				}
			],
			"rolls": 1.0
		}
	],
	"random_sequence": "minecraft:entities/rabbit"
}
